%
M48
M72
T01C0.02362
T02C0.03150
T03C0.04000
T04C0.07000
T05C0.08100
%
T01
X121000Y121000
X121000Y151000
X111000Y151000
X131000Y91000
X176000Y13500
T02
X141000Y31000
X141000Y41000
X141000Y51000
X141000Y61000
X141000Y71000
X141000Y81000
X141000Y91000
X141000Y101000
X141000Y111000
X141000Y121000
X141000Y131000
X141000Y141000
X141000Y151000
X141000Y161000
X141000Y171000
X81000Y171000
X81000Y161000
X81000Y151000
X81000Y141000
X81000Y131000
X81000Y121000
X81000Y111000
X81000Y101000
X81000Y91000
X81000Y81000
X81000Y71000
X81000Y61000
X81000Y51000
X81000Y41000
X81000Y31000
T03
X21000Y21000
X21000Y31000
X21000Y41000
X21000Y51000
X21000Y71000
X31000Y71000
X41000Y71000
X41000Y91000
X31000Y91000
X21000Y91000
X21000Y111000
X31000Y111000
X41000Y111000
X41000Y131000
X31000Y131000
X21000Y131000
X21000Y166000
X21000Y176000
X31000Y176000
X31000Y166000
X41000Y166000
X41000Y176000
X66000Y171000
X66000Y161000
X66000Y151000
X66000Y141000
X66000Y131000
X66000Y121000
X66000Y111000
X66000Y101000
X66000Y91000
X66000Y81000
X66000Y71000
X66000Y61000
X66000Y51000
X66000Y41000
X66000Y31000
X156000Y31000
X156000Y41000
X156000Y51000
X156000Y61000
X156000Y71000
X156000Y81000
X156000Y91000
X156000Y101000
X156000Y111000
X156000Y121000
X156000Y131000
X156000Y141000
X156000Y151000
X156000Y161000
X156000Y171000
X151000Y201000
X161000Y201000
X161000Y221000
X151000Y221000
X141000Y221000
X141000Y241000
X151000Y241000
X161000Y241000
X141000Y201000
X121000Y201000
X111000Y201000
X101000Y201000
X91000Y201000
X91000Y221000
X101000Y221000
X111000Y221000
X121000Y221000
X121000Y241000
X111000Y241000
X101000Y241000
X91000Y241000
X186000Y81000
X196000Y81000
X206000Y81000
T04
X141000Y21000
X81000Y21000
X81000Y181000
X141000Y181000
T05
X186000Y176000
X206000Y176000
X206000Y201000
X186000Y201000
X186000Y226000
X206000Y226000
X206000Y141000
X186000Y141000
X186000Y111000
X206000Y111000
M30
